\relax 
\abx@aux@sortscheme{nty}
\abx@aux@sortnamekeyscheme{global}
\@writefile{toc}{\boolfalse {citerequest}\boolfalse {citetracker}\boolfalse {pagetracker}\boolfalse {backtracker}\relax }
\@writefile{lof}{\boolfalse {citerequest}\boolfalse {citetracker}\boolfalse {pagetracker}\boolfalse {backtracker}\relax }
\@writefile{lot}{\boolfalse {citerequest}\boolfalse {citetracker}\boolfalse {pagetracker}\boolfalse {backtracker}\relax }
\@writefile{toc}{\defcounter {refsection}{0}\relax }\@writefile{toc}{\contentsline {section}{\numberline {1}Introduction}{1}}
\@writefile{lot}{\defcounter {refsection}{0}\relax }\@writefile{lot}{\contentsline {table}{\numberline {1}{\ignorespaces Caption for LOF}}{1}}
\providecommand*\caption@xref[2]{\@setref\relax\@undefined{#1}}
\newlabel{tab:init}{{1}{1}}
\@writefile{toc}{\defcounter {refsection}{0}\relax }\@writefile{toc}{\contentsline {section}{\numberline {2}Results and discussion}{1}}
\newlabel{fig:c1p}{{1a}{2}}
\newlabel{sub@fig:c1p}{{a}{2}}
\newlabel{fig:c1e}{{1b}{2}}
\newlabel{sub@fig:c1e}{{b}{2}}
\newlabel{fig:c1rho}{{1c}{2}}
\newlabel{sub@fig:c1rho}{{c}{2}}
\newlabel{fig:c1u}{{1d}{2}}
\newlabel{sub@fig:c1u}{{d}{2}}
\@writefile{lof}{\defcounter {refsection}{0}\relax }\@writefile{lof}{\contentsline {figure}{\numberline {1}{\ignorespaces Case 1 simulations conducted using various flux limiters\relax }}{2}}
\newlabel{fig:c1}{{1}{2}}
\newlabel{fig:c2p}{{2a}{3}}
\newlabel{sub@fig:c2p}{{a}{3}}
\newlabel{fig:c2e}{{2b}{3}}
\newlabel{sub@fig:c2e}{{b}{3}}
\newlabel{fig:c2rho}{{2c}{3}}
\newlabel{sub@fig:c2rho}{{c}{3}}
\newlabel{fig:c2u}{{2d}{3}}
\newlabel{sub@fig:c2u}{{d}{3}}
\@writefile{lof}{\defcounter {refsection}{0}\relax }\@writefile{lof}{\contentsline {figure}{\numberline {2}{\ignorespaces Case 2 simulations conducted using various flux limiters\relax }}{3}}
\newlabel{fig:c2}{{2}{3}}
