\relax 
\abx@aux@sortscheme{nty}
\abx@aux@sortnamekeyscheme{global}
\abx@aux@cite{spur}
\@writefile{toc}{\boolfalse {citerequest}\boolfalse {citetracker}\boolfalse {pagetracker}\boolfalse {backtracker}\relax }
\@writefile{lof}{\boolfalse {citerequest}\boolfalse {citetracker}\boolfalse {pagetracker}\boolfalse {backtracker}\relax }
\@writefile{lot}{\boolfalse {citerequest}\boolfalse {citetracker}\boolfalse {pagetracker}\boolfalse {backtracker}\relax }
\@writefile{toc}{\defcounter {refsection}{0}\relax }\@writefile{toc}{\contentsline {section}{\numberline {1}Introduction}{1}}
\@writefile{lot}{\defcounter {refsection}{0}\relax }\@writefile{lot}{\contentsline {table}{\numberline {1}{\ignorespaces Caption for LOF}}{1}}
\providecommand*\caption@xref[2]{\@setref\relax\@undefined{#1}}
\newlabel{tab:init}{{1}{1}}
\@writefile{toc}{\defcounter {refsection}{0}\relax }\@writefile{toc}{\contentsline {section}{\numberline {2}Results and discussion}{1}}
\@writefile{lot}{\defcounter {refsection}{0}\relax }\@writefile{lot}{\contentsline {table}{\numberline {2}{\ignorespaces Simulation runtimes in seconds\relax }}{1}}
\newlabel{tab:times}{{2}{1}}
\newlabel{fig:p05}{{1a}{3}}
\newlabel{sub@fig:p05}{{a}{3}}
\newlabel{fig:e05}{{1b}{3}}
\newlabel{sub@fig:e05}{{b}{3}}
\newlabel{fig:rho05}{{1c}{3}}
\newlabel{sub@fig:rho05}{{c}{3}}
\newlabel{fig:u05}{{1d}{3}}
\newlabel{sub@fig:u05}{{d}{3}}
\@writefile{lof}{\defcounter {refsection}{0}\relax }\@writefile{lof}{\contentsline {figure}{\numberline {1}{\ignorespaces Time step of $5\times 10^{-3}$\relax }}{3}}
\newlabel{fig:05}{{1}{3}}
\newlabel{fig:p025}{{2a}{4}}
\newlabel{sub@fig:p025}{{a}{4}}
\newlabel{fig:e025}{{2b}{4}}
\newlabel{sub@fig:e025}{{b}{4}}
\newlabel{fig:rho025}{{2c}{4}}
\newlabel{sub@fig:rho025}{{c}{4}}
\newlabel{fig:u025}{{2d}{4}}
\newlabel{sub@fig:u025}{{d}{4}}
\@writefile{lof}{\defcounter {refsection}{0}\relax }\@writefile{lof}{\contentsline {figure}{\numberline {2}{\ignorespaces Time step of $2.5\times 10^{-3}$\relax }}{4}}
\newlabel{fig:025}{{2}{4}}
\newlabel{fig:p0125}{{3a}{5}}
\newlabel{sub@fig:p0125}{{a}{5}}
\newlabel{fig:e0125}{{3b}{5}}
\newlabel{sub@fig:e0125}{{b}{5}}
\newlabel{fig:rho0125}{{3c}{5}}
\newlabel{sub@fig:rho0125}{{c}{5}}
\newlabel{fig:u0125}{{3d}{5}}
\newlabel{sub@fig:u0125}{{d}{5}}
\@writefile{lof}{\defcounter {refsection}{0}\relax }\@writefile{lof}{\contentsline {figure}{\numberline {3}{\ignorespaces Time step of $1.25\times 10^{-3}$\relax }}{5}}
\newlabel{fig:0125}{{3}{5}}
